%YAML 1.1
%TAG !u! tag:unity3d.com,2011:
--- !u!78 &1
TagManager:
  serializedVersion: 2
  tags:
  - Coin
  - Green_coin
  - Shake_coin
  - Big_coin
  - Big_Green_coin
  - Black_bar_coin
  - Effects
  - API
  - Banana
  - Apple
  - Orange
  - Lemon
  - Carrot
  - Lolipop
  - Bell
  - Candy
  layers:
  - Default
  - TransparentFX
  - Ignore Raycast
  - 
  - Water
  - UI
  - 
  - 
  - 
  - 
  - 
  - 
  - 
  - 
  - 
  - 
  - 
  - 
  - 
  - 
  - 
  - 
  - 
  - 
  - 
  - 
  - 
  - 
  - 
  - 
  - 
  - 
  m_SortingLayers:
  - name: Default
    uniqueID: 0
    locked: 0
