%YAML 1.1
%TAG !u! tag:unity3d.com,2011:
--- !u!74 &7400000
AnimationClip:
  m_ObjectHideFlags: 0
  m_CorrespondingSourceObject: {fileID: 0}
  m_PrefabInstance: {fileID: 0}
  m_PrefabAsset: {fileID: 0}
  m_Name: bird3
  serializedVersion: 6
  m_Legacy: 0
  m_Compressed: 0
  m_UseHighQualityCurve: 1
  m_RotationCurves: []
  m_CompressedRotationCurves: []
  m_EulerCurves: []
  m_PositionCurves: []
  m_ScaleCurves: []
  m_FloatCurves: []
  m_PPtrCurves:
  - curve:
    - time: 0
      value: {fileID: 21300000, guid: cf672090322ab3b4099c1d3b064bc018, type: 3}
    - time: 0.13333334
      value: {fileID: 21300000, guid: 6eb84a434136f4e44b62604f7648949c, type: 3}
    - time: 0.28333333
      value: {fileID: 21300000, guid: b86e207bed4eb3f4cb7539c382cd6d37, type: 3}
    - time: 0.41666666
      value: {fileID: 21300000, guid: 33170b48316d8bd41a8d4df1fbe223fa, type: 3}
    - time: 0.56666666
      value: {fileID: 21300000, guid: 198f80082187dea40a7679622d5fd53f, type: 3}
    - time: 0.7
      value: {fileID: 21300000, guid: 260caab3d3544c64c95ea8b6aae3c7c1, type: 3}
    - time: 0.85
      value: {fileID: 21300000, guid: 723e614d966e9354ca32cd4f8dd284fb, type: 3}
    - time: 0.98333335
      value: {fileID: 21300000, guid: d92ddf9e7c12a144181d7baac8849346, type: 3}
    attribute: m_Sprite
    path: 
    classID: 212
    script: {fileID: 0}
  m_SampleRate: 60
  m_WrapMode: 0
  m_Bounds:
    m_Center: {x: 0, y: 0, z: 0}
    m_Extent: {x: 0, y: 0, z: 0}
  m_ClipBindingConstant:
    genericBindings:
    - serializedVersion: 2
      path: 0
      attribute: 0
      script: {fileID: 0}
      typeID: 212
      customType: 23
      isPPtrCurve: 1
    pptrCurveMapping:
    - {fileID: 21300000, guid: cf672090322ab3b4099c1d3b064bc018, type: 3}
    - {fileID: 21300000, guid: 6eb84a434136f4e44b62604f7648949c, type: 3}
    - {fileID: 21300000, guid: b86e207bed4eb3f4cb7539c382cd6d37, type: 3}
    - {fileID: 21300000, guid: 33170b48316d8bd41a8d4df1fbe223fa, type: 3}
    - {fileID: 21300000, guid: 198f80082187dea40a7679622d5fd53f, type: 3}
    - {fileID: 21300000, guid: 260caab3d3544c64c95ea8b6aae3c7c1, type: 3}
    - {fileID: 21300000, guid: 723e614d966e9354ca32cd4f8dd284fb, type: 3}
    - {fileID: 21300000, guid: d92ddf9e7c12a144181d7baac8849346, type: 3}
  m_AnimationClipSettings:
    serializedVersion: 2
    m_AdditiveReferencePoseClip: {fileID: 0}
    m_AdditiveReferencePoseTime: 0
    m_StartTime: 0
    m_StopTime: 1
    m_OrientationOffsetY: 0
    m_Level: 0
    m_CycleOffset: 0
    m_HasAdditiveReferencePose: 0
    m_LoopTime: 1
    m_LoopBlend: 0
    m_LoopBlendOrientation: 0
    m_LoopBlendPositionY: 0
    m_LoopBlendPositionXZ: 0
    m_KeepOriginalOrientation: 0
    m_KeepOriginalPositionY: 1
    m_KeepOriginalPositionXZ: 0
    m_HeightFromFeet: 0
    m_Mirror: 0
  m_EditorCurves: []
  m_EulerEditorCurves: []
  m_HasGenericRootTransform: 0
  m_HasMotionFloatCurves: 0
  m_Events: []
